{
  "palette": {
    "stateColor":{
      "defaultColor":{
        "default": "#333333",
        "bgPrimary":"#2c296a",
        "bgSecondary":"#26c6da",
        "bgSuccess":"#00c292",
        "bgInfo":"#4099ff",
        "bgWarning":"#f3d800",
        "bgDanger":"#ff5370",
        "bgLight":"#eee",
        "bgDark":"#2a3142",
        "bgWhite": "#ffffff",
        "bgBlack": "#000000",
        "bgGrey": "#777"
      },
      "colors":{
        "primary": {
          "base0": "#b092e5",
          "base1": "#b498e7",
          "base2": "#b99fe8",
          "base3": "#bda5ea",
          "base4": "#c2abeb",
          "base5": "#c6b1ed",
          "base6": "#cbb7ee",
          "base7": "#cfbef0",
          "base8": "#d4c4f1",
          "base9": "#d8caf3",
          "base10": "#ddd0f4",
          "base11": "#e1d6f5",
          "base12": "#e6ddf7"
        }
      }
    }
  }
}